[
  {
    "id": "1000@default",
    "accountId": "1000",
    "login": "technical_user",
    "firstName": "technical_user_firstname",
    "lastName": "technical_user_lastname",
    "password": "password",
    "emailValidation": true,
    "isActive": true,
    "webSites": ["default"],
    "roles": ["USER"]
  },
  {
    "id": "1001@default",
    "accountId": "1001",
    "login": "admin_enseigne",
    "firstName": "admin_enseigne_firstname",
    "lastName": "admin_enseigne_lastname",
    "password": "password",
    "emailValidation": true,
    "isActive": true,
    "webSites": ["default"],
    "roles": ["ADMIN_ENSEIGNE"]
  },
  {
    "id": "1002@default",
    "accountId": "1002",
    "login": "admin_dod",
    "firstName": "admin_dod_firstname",
    "lastName": "admin_dod_lastname",
    "password": "password",
    "emailValidation": true,
    "isActive": true,
    "webSites": ["default"],
    "roles": ["ADMIN_DOD", "ADMIN_ATC"]
  },
  {
    "id": "1003@default",
    "accountId": "1003",
    "login": "user_account",
    "password": "password",
    "firstName": "user_account_firstname",
    "lastName": "user_account_lastname",
    "emailValidation": true,
    "isActive": true,
    "webSites": ["default"],
    "roles": ["ACCOUNT"]
  },
  {
    "id": "1004@default",
    "accountId": "1004",
    "login": "atc",
    "firstName": "atc_firstname",
    "lastName": "atc_lastname",
    "password": "password",
    "emailValidation": true,
    "isActive": true,
    "webSites": ["default"],
    "roles": ["ADMIN_ATC"]
  },
  {
    "id": "VI_1328@cedeo",
    "accountId": "VI_1328",
    "login": "eloenz@sfr.fr",
    "firstName": "eloenz_firstname",
    "lastName": "eloenz_lastname",
    "password": "password",
    "emailValidation": true,
    "isActive": true,
    "webSites": ["cedeo"],
    "roles": ["ACCOUNT"]
  },
  {
    "id": "VI_1328@default",
    "accountId": "VI_1328",
    "login": "eloenz@sfr.fr",
    "firstName": "eloenz_firstname",
    "lastName": "eloenz_lastname",
    "password": "password",
    "emailValidation": true,
    "isActive": true,
    "webSites": ["default"],
    "roles": ["ACCOUNT"]
  },
  {
    "id": "y8674819@clim",
    "accountId": "y8674819",
    "login": "y8674819",
    "firstName": "y8674819_firstname",
    "lastName": "y8674819_lastname",
    "password": "password",
    "emailValidation": true,
    "isActive": true,
    "webSites": ["clim"],
    "roles": ["ACCOUNT"]
  },
  {
    "id": "VI_4569@default",
    "accountId": "VI_1328",
    "login": "eloenz@sfr.fr",
    "firstName": "eloenz_firstname",
    "lastName": "eloenz_lastname",
    "password": "password",
    "emailValidation": true,
    "isActive": true,
    "webSites": ["default"],
    "roles": ["ACCOUNT"]
  }
]